\usetikzlibrary{arrows,decorations.pathmorphing,backgrounds,positioning,fit,petri}
\usetikzlibrary{decorations.pathmorphing, decorations.shapes}

\begin{tikzpicture}[circle dotted/.style={dash pattern=on .0mm off 3.5mm,
                                         line cap=round}]


\node (v14) at (1.2,-6) {};
\node (v4) at (1.6,-4.6) {};
\node (v9) at (4.8,-4.6) {};
\node (v12) at (5.2,-6) {};
\node (v11) at (3.2,-4) {};

\node (v10) at (3.2,-7) {};
\draw [thick] (v4) edge (v9);
\draw [thick] (v9) edge (v10);
\draw [thick] (v10) edge (v4);
\draw [thick] (v4) edge (v11);
\draw [thick] (v9) edge (v12);
\draw [thick] (v12) edge (v10);
\draw [thick] (v10) edge (v14);
\draw [thick] (v14) edge (v4);
\draw [thick] (v11) edge (v9);

\node [inner sep=1,thick, circle, minimum width=0.2cm,draw, xshift = -0.cm, yshift=0.cm, label=-180:$v_5$] at (1.6,-4.6) {};
\node [inner sep=1,thick, circle, minimum width=0.2cm,draw, xshift = -0.cm, yshift=0.cm, label=-90:$v_0$] at (1.2,-6) {};
\node [inner sep=1,thick, circle, minimum width=0.2cm,draw, xshift = -0.cm, yshift=0.cm, label=-90:$v_1$] at (3.2,-7) {};
\node [inner sep=1,thick, circle, minimum width=0.2cm,draw, xshift = -0.cm, yshift=0.cm, label=-90:$v_2$] at (5.2,-6) {};
\node [inner sep=1,thick, circle, minimum width=0.2cm,draw, xshift = -0.cm, yshift=0.cm, label=-90:$v_3$] at (4.8,-4.6) {};
\node [inner sep=1,thick, circle, minimum width=0.2cm,draw, xshift = -0.cm, yshift=0.cm, label=-90:$v_4$] at (3.2,-4) {};

\draw [blue, -zet, yshift=0cm] (1.4,-5.9) -- (3.2,-6.8) -- (5.2,-5.8) -- (4.9,-4.4) -- (1.7,-4.4) -- (3.2,-6.7) -- (4.7,-4.3) -- (3.2,-3.8) -- (1.6,-4.3) -- (1.2,-5.7);


\node (v14_1) at (6.2,-5.8) {};
\node [inner sep=1,thick, circle, minimum width=0.2cm,draw, xshift = -0.cm, yshift=0.cm, label=-180:$v_{51}$] (v4_1) at (6.8,-4.6) {};

\node [inner sep=1,thick, circle, minimum width=0.2cm,draw, xshift = -0.cm, yshift=0.cm, label=-0:$v_3$] (v9_1) at (9.8,-4.6) {};
\node (v12_1) at (10.1,-5.9) {};
\node (v11_1) at (8.2,-3.8) {};
\node [inner sep=1,thick, circle, minimum width=0.2cm,draw, xshift = -0.cm, yshift=0.cm, label=20:$v_{11}$] (v10_1) at (8.2,-6.7) {};


\node [inner sep=1,thick, circle, minimum width=0.2cm,draw, xshift = -0.cm, yshift=0.cm, label=-0:$v_{32}$] (v18) at (9.8,-4.1) {};
\node [inner sep=1,thick, circle, minimum width=0.2cm,draw, xshift = -0.cm, yshift=0.cm, label=-180:$v_{52}$] (v17) at (6.8,-4.1) {};
\node [inner sep=1,thick, circle, minimum width=0.2cm,draw, xshift = -0.cm, yshift=0.cm, label=-0:$v_{12}$] (v16) at (8.2,-7.2) {};


\draw [thick] (v4_1) edge (v9_1);
\draw [thick] (v18) edge (v10_1);
\draw [thick] (v10_1) edge (v4_1);
\draw [thick] (v17) edge (v11_1);
\draw [thick] (v9_1) edge (v12_1);
\draw [thick] (v12_1) edge (v16);
\draw [thick] (v16) edge (v14_1);
\draw [thick] (v14_1) edge (v17);
\draw [thick] (v11_1) edge (v18);

\node [inner sep=1,thick, circle, minimum width=0.2cm,draw, xshift = -0.cm, yshift=0.cm, label=-90:$v_0$] at (6.2,-5.8) {};
\node [inner sep=1,thick, circle, minimum width=0.2cm,draw, xshift = -0.cm, yshift=0.cm, label=-90:$v_2$] at (10.1,-5.9) {};
\node [inner sep=1,thick, circle, minimum width=0.2cm,draw, xshift = -0.cm, yshift=0.cm, label=-90:$v_4$] at (8.2,-3.8) {};

\draw [blue, -zet, yshift=0cm] (6.4,-5.7) -- (8.2,-7) -- (10.1,-5.7) -- (9.8,-4.4) -- (6.8,-4.4) -- (8.2,-6.5) -- (9.8,-3.9) -- (8.2,-3.6) -- (6.8,-3.9) -- (6.2,-5.5);


\node at (3.2,-7.9) {a)};
\node at (8.2,-7.9) {b)};
\end{tikzpicture}
