\usetikzlibrary{arrows,decorations.pathmorphing,backgrounds,positioning,fit,petri}
\usetikzlibrary{decorations.pathmorphing, decorations.shapes}

\begin{tikzpicture}[circle dotted/.style={dash pattern=on .0mm off 3.5mm,
                                         line cap=round}]



\node [inner sep=1,thick, circle, minimum width=0.2cm,draw, xshift = -0.0cm, yshift=0.0cm] (v4) at (6.9,-0.1) {};
\node [inner sep=1,thick, circle, minimum width=0.2cm,draw, xshift = -0.0cm, yshift=0.0cm] (v2) at (7.8,0.6) {};


\node [inner sep=1,thick, circle, minimum width=0.3cm,draw, xshift = -0.0cm, yshift=0.0cm, label=-90:$v_0$] (v5) at (0.5,1) {};

\node [inner sep=1,thick, circle, minimum width=0.2cm,draw, xshift = -0.0cm, yshift=0.0cm,label=-90:$v_2$] (v6) at (3.5,-0.5) {};
\node [inner sep=1,thick, circle, minimum width=0.2cm,draw, xshift = -0.0cm, yshift=0.0cm, label=100:$v_3$] (v13) at (5.2,0.2) {};





\node [inner sep=1,thick, circle, minimum width=0.2cm,draw, xshift = -0.0cm, yshift=0.0cm, label=-70:$$] (v18) at (5.7,1.7) {};



\node [inner sep=1,thick, circle, minimum width=0.2cm,draw, xshift = -0.0cm, yshift=0.0cm] (v14) at (6.2,-0.8) {};
\node [inner sep=1,thick, circle, minimum width=0.2cm,draw, xshift = -0.0cm, yshift=0.0cm] (v15) at (6.2,-1.6) {};
\node [inner sep=1,thick, circle, minimum width=0.2cm,draw, xshift = -0.0cm, yshift=0.0cm] (v16) at (7,-1.4) {};
\node [inner sep=1,thick, circle, minimum width=0.2cm,draw, xshift = -0.0cm, yshift=0.0cm] (v17) at (7.2,-0.8) {};

\draw [thick] (v2) edge (v4);
\draw [thick] (v4) edge (v13);

\draw [thick] (v13) edge (v14);
\draw [thick] (v14) edge (v15);
\draw [thick] (v14) edge (v16);
\draw [thick] (v14) edge (v17);
\draw [thick] (v13) edge (v18);

\draw [ultra thick] (v6) edge node [below] {$e_s$} (v13);
  
\draw[decorate,decoration={shape backgrounds, pre length=2mm, post length=2mm,shape=circle,shape size=1.5 mm,shape sep=3mm}] (v6) -- (v13); 



\node [inner sep=1,thick, circle, minimum width=0.2cm,draw, xshift = -0.cm, yshift=0.cm, label=90:$v_1$] (v23) at (2,-0.4) {};
\draw [thick] (v5) edge (v23);
\draw [thick] (v23) edge (v6);

\node [token, inner sep=0,thick, circle, minimum width=1.5mm,draw, xshift = -0.cm, yshift=0.cm] (v24) at (0.5,1) {};


\node [inner sep=1,thick, circle, minimum width=0.2cm,draw, xshift = -0.cm, yshift=0.cm, label=-90:$v_4$] (v1) at (2.5,-2) {};
\node [inner sep=1,thick, circle, minimum width=0.2cm,draw, xshift = -0.cm, yshift=0.cm, label=-90:$v_5$] (v3) at (1,-3.5) {};
\node [inner sep=1,thick, circle, minimum width=0.2cm,draw, xshift = -0.cm, yshift=0.cm, label=-90:$v_6$] (v7) at (0.5,-2) {};
\node [inner sep=1,thick, circle, minimum width=0.2cm,draw, xshift = -0.cm, yshift=0.cm, label=-90:$v_1'$] (v8) at (0,-0.5) {};
\draw [thick] (v23) edge (v1);
\draw [thick] (v1) edge (v3);
\draw [thick] (v3) edge (v7);

\draw [thick] (v7) edge node [cross out, draw=BrickRed, line width=0.6mm, rotate=30, pos=0.5] (v78) {}  node [pos=0.7] (v723) {}  (v23);
\draw [BrickRed, thick, bend left=-33] (v7) edge node [pos=0.7] (v78) {} (v8);
\draw [BrickRed, post,bend right=15, ->,shorten >=0pt,>=zet,semithick] (v723) edge (v78);
 
\node [inner sep=1,thick, circle, minimum width=0.2cm,draw, xshift = -0.cm, yshift=0.cm, label=-90:$$] (v10) at (-1,1) {};
\node [inner sep=1,thick, circle, minimum width=0.2cm,draw, xshift = -0.cm, yshift=0.cm, label=-90:$$] (v9) at (-0.5,2) {};

\draw [thick] (v9) edge (v5);
\draw [thick] (v10) edge (v5);

\draw [line width=2mm, line cap=round, shorten <= 3pt, shorten >= 3pt, opacity=0.4, Gray] (v5) edge (v23);
\draw [line width=2mm, line cap=round, shorten <= 3pt, shorten >= 3pt, opacity=0.4, Gray] (v23) edge (v1);
\draw [line width=2mm, line cap=round, shorten <= 3pt, shorten >= 3pt, opacity=0.4, Gray] (v1) edge (v3);
\draw [line width=2mm, line cap=round, shorten <= 3pt, shorten >= 3pt, opacity=0.4, Gray] (v3) edge (v7);
\draw [line width=2mm, line cap=round, shorten <= 3pt, shorten >= 3pt, opacity=0.4, Gray] (v7) edge (v23);
\draw [line width=2mm, line cap=round, shorten <= 3pt, shorten >= 3pt, opacity=0.4, Gray] (v23) edge (v6);

\draw [bend right=33, line width=2mm, line cap=round, shorten <= 3pt, shorten >= 3pt, opacity=0.2, Gray] (v7) edge (v8);

\end{tikzpicture}
