\usetikzlibrary{arrows,decorations.pathmorphing,backgrounds,positioning,fit,petri}
\usetikzlibrary{decorations.pathmorphing, decorations.shapes}

\begin{tikzpicture}[circle dotted/.style={dash pattern=on .0mm off 3.5mm,
                                         line cap=round}]



\node [inner sep=1,thick, circle, minimum width=0.2cm,draw, xshift = -0.0cm, yshift=0.0cm, label=-90:$v_2$] (v4) at (6.5,1) {};
\node [inner sep=1,thick, circle, minimum width=0.2cm,draw, xshift = -0.0cm, yshift=0.0cm, label=-90:$v_4$] (v2) at (8.5,-0.5) {};
\node [inner sep=1,thick, circle, minimum width=0.2cm,draw, xshift = -0.0cm, yshift=0.0cm, label=-60:$v_8$] (v3) at (6.5,2.5) {};
\node [inner sep=1,thick, circle, minimum width=0.3cm,draw, xshift = -0.0cm, yshift=0.0cm, label=-60:$v_3$] (v1) at (8.5,1) {};
\node [inner sep=1,thick, circle, minimum width=0.3cm,draw, xshift = -0.0cm, yshift=0.0cm, label=-90:$v_1$] (v5) at (5,0.5) {};



\node [inner sep=1,thick, circle, minimum width=0.2cm,draw, xshift = -0.0cm, yshift=0.0cm, label=-90:$v_5$] (v8) at (10.5,1) {};
\node [inner sep=1,thick, circle, minimum width=0.2cm,draw, xshift = -0.0cm, yshift=0.0cm, label=-90:$v_6$] (v7) at (10,2.5) {};
\node [inner sep=1,thick, circle, minimum width=0.2cm,draw, xshift = -0.0cm, yshift=0.0cm, label=-60:$v_7$] (v6) at (8.5,3) {};
\draw [thick] (v5) edge (v4);
\draw [thick] (v4) edge (v3);
\draw [thick] (v4) edge (v1);
\draw [thick] (v1) edge (v6);
\draw [thick] (v1) edge (v7);
\draw [thick] (v1) edge (v8);
\draw [thick] (v1) edge (v2);

\node [token,inner sep=0,thick, circle, minimum width=0.15cm,gray,draw, xshift = -0.cm, yshift=0.cm] at (5,0.5) {};
\node [token,inner sep=0,thick, circle, minimum width=0.15cm, gray,draw, xshift = -0.cm, yshift=0.cm] at (8.5,1) {};
\node [token,inner sep=0,thick, circle, minimum width=0.15cm,draw, xshift = -0.cm, yshift=0.cm] at (9.1046,1) {};
\node [token,inner sep=0,thick, circle, minimum width=0.15cm,draw, xshift = -0.cm, yshift=0.cm] at (8.4977,1.6174) {};
\node [token,inner sep=0,thick, circle, minimum width=0.15cm,draw, xshift = -0.cm, yshift=0.cm] at (5.5272,0.6761) {};
\node [token,inner sep=0,thick, circle, minimum width=0.15cm,draw, xshift = -0.cm, yshift=0.cm] at (8.9337,1.4372) {};
\node [token,inner sep=0,thick, circle, minimum width=0.15cm,draw, xshift = -0.cm, yshift=0.cm] at (8.4961,0.3953) {};
\node [token,inner sep=0,thick, circle, minimum width=0.15cm,draw, xshift = -0.cm, yshift=0.cm] at (7.9181,1) {};

\end{tikzpicture}
