\usetikzlibrary{arrows,decorations.pathmorphing,backgrounds,positioning,fit,petri}
\usetikzlibrary{decorations.pathmorphing, decorations.shapes}

\begin{tikzpicture}[circle dotted/.style={dash pattern=on .0mm off 3.5mm,
                                         line cap=round}]



\node [inner sep=1,thick, circle, minimum width=0.2cm,draw, xshift = -0.0cm, yshift=0.0cm, label=-90:$v_1$] (v1) at (-2.5,0) {};
\node [inner sep=1,thick, circle, minimum width=0.2cm,draw, xshift = -0.0cm, yshift=0.0cm, label=-90:$v_2$] (v2) at (3,0) {};
\draw [thick, -zet, bend right=25] (v1) edge (v2);
\draw [thick, -zet, bend right=25] (v2) edge (v1);


\node [thick, circle, minimum width=1.45cm, lightgray,draw, xshift = -0.cm, yshift=0.cm, label=-90:$B_{\varepsilon}(x_1)$] at (0.1,-0.7) {};
\node [token,inner sep=0, thick, circle, minimum width=0.15cm, lightgray,draw, xshift = -0.cm, yshift=0.cm, label=-90:$x_1$] at (0.0928,-0.695) {};

\node [token,inner sep=0, thick, circle, minimum width=0.15cm, lightgray,draw, xshift = -0.cm, yshift=0.cm] at (-1.21,-0.49) {};
\node [token,inner sep=0, thick, circle, minimum width=0.15cm, lightgray,draw, xshift = -0.cm, yshift=0.cm] at (-2.1,-0.2) {};
\node [token,inner sep=0, thick, circle, minimum width=0.15cm, lightgray,draw, xshift = -0.cm, yshift=0.cm] at (1.4,-0.57) {};
\node [token,inner sep=0, thick, circle, minimum width=0.15cm, lightgray,draw, xshift = -0.cm, yshift=0.cm] at (2.39,0.26) {};
\node [token,inner sep=0, thick, circle, minimum width=0.15cm, lightgray,draw, xshift = -0.cm, yshift=0.cm] at (1.89,0.44) {};
\node [token,inner sep=0, thick, circle, minimum width=0.15cm, lightgray,draw, xshift = -0.cm, yshift=0.cm] at (0.92,0.66) {};
\node [token,inner sep=0, thick, circle, minimum width=0.15cm, lightgray,draw, xshift = -0.cm, yshift=0.cm] at (-0.1,0.7) {};
\node [token,inner sep=0, thick, circle, minimum width=0.15cm, lightgray,draw, xshift = -0.cm, yshift=0.cm] at (-1.1,0.53) {};
\node [token,inner sep=0, thick, circle, minimum width=0.15cm, lightgray,draw, xshift = -0.cm, yshift=0.cm] at (-1.8,0.3) {};

\node [token,inner sep=0, thick, circle, minimum width=0.15cm, lightgray,draw, xshift = -0.cm, yshift=0.cm] at (-1.8,0.3) {};
\node [token,inner sep=0, thick, circle, minimum width=0.15cm, lightgray,draw, xshift = -0.cm, yshift=0.cm] at (-1.54,0.4) {};
\node [token,inner sep=0, thick, circle, minimum width=0.15cm, lightgray,draw, xshift = -0.cm, yshift=0.cm] at (2.3,-0.3) {};


\node [token,inner sep=0, thick, circle, minimum width=0.15cm, black, draw, xshift = -0.cm, yshift=0.cm, label=-90:$p$] at (-0.3688,-0.6621) {};
\node (v3) at (-3.3,1.2) {};
\node (v4) at (-3.9,0.8) {};
\node (v6) at (-3.3,-1.2) {};
\node (v5) at (-3.9,-0.8) {};

\draw [-zet, bend left=10] (v3) edge (v1);
\draw [bend right=10] (v1) edge (v4);
\draw [-zet, bend left=10] (v5) edge (v1);
\draw [-, bend right=10] (v1) edge (v6);
\node (v7) at (4,0.8) {};
\node (v8) at (4.4,0.3) {};
\draw [-zet, bend left=10]  (v7) edge (v2);
\draw [-, bend right=10]  (v2) edge (v8);
\end{tikzpicture}
