\usetikzlibrary{arrows,decorations.pathmorphing,backgrounds,positioning,fit,petri}
\usetikzlibrary{decorations.pathmorphing, decorations.shapes}

\begin{tikzpicture}[circle dotted/.style={dash pattern=on .0mm off 3.5mm,
                                         line cap=round}]



\node [inner sep=1,thick, circle, minimum width=0.2cm,draw, xshift = -0.0cm, yshift=0.0cm] (v4) at (7.2,0) {};
\node [inner sep=1,thick, circle, minimum width=0.2cm,draw, xshift = -0.0cm, yshift=0.0cm] (v2) at (8.1,0.7) {};
\node [inner sep=1,thick, circle, minimum width=0.2cm,draw, xshift = -0.0cm, yshift=0.0cm] (v3) at (7.6,1.7) {};
\node [inner sep=1,thick, circle, minimum width=0.2cm,draw, xshift = -0.0cm, yshift=0.0cm] (v1) at (8.6,1.2) {};
\node [inner sep=1,thick, circle, minimum width=0.3cm,draw, xshift = -0.0cm, yshift=0.0cm, label=-90:$v_0$] (v5) at (0.5,0.5) {};

\node [inner sep=1,thick, circle, minimum width=0.2cm,draw, xshift = -0.0cm, yshift=0.0cm,label=-90:$v_2$] (v6) at (3.8,-0.4) {};
\node [inner sep=1,thick, circle, minimum width=0.2cm,draw, xshift = -0.0cm, yshift=0.0cm, label=100:$v_3$] (v13) at (5.5,0.3) {};





\node [inner sep=1,thick, circle, minimum width=0.2cm,draw, xshift = -0.0cm, yshift=0.0cm, label=-70:$v_4'$] (v18) at (6,1.8) {};
\node [inner sep=1,thick, circle, minimum width=0.2cm,draw, xshift = -0.0cm, yshift=0.0cm, label=-90:$v_5'$] (v19) at (5,2.8) {};
\node [inner sep=1,thick, circle, minimum width=0.2cm,draw, xshift = -0.0cm, yshift=0.0cm] (v20) at (7,2.3) {};
\node [inner sep=1,thick, circle, minimum width=0.2cm,draw, xshift = -0.0cm, yshift=0.0cm] (v21) at (6.5,3.3) {};
\node [inner sep=1,thick, circle, minimum width=0.2cm,draw, xshift = -0.0cm, yshift=0.0cm] (v22) at (7.5,3.3) {};
\node [inner sep=1,thick, circle, minimum width=0.2cm,draw, xshift = -0.0cm, yshift=0.0cm] (v14) at (6.5,-0.7) {};
\node [inner sep=1,thick, circle, minimum width=0.2cm,draw, xshift = -0.0cm, yshift=0.0cm] (v15) at (6.5,-1.5) {};
\node [inner sep=1,thick, circle, minimum width=0.2cm,draw, xshift = -0.0cm, yshift=0.0cm] (v16) at (7.3,-1.3) {};
\node [inner sep=1,thick, circle, minimum width=0.2cm,draw, xshift = -0.0cm, yshift=0.0cm] (v17) at (7.5,-0.7) {};
\node [inner sep=1,thick, circle, minimum width=0.2cm,draw, xshift = -0cm, yshift=0.cm] (v7) at (5.2,-1) {};
\draw  [thick] (v1) edge (v2);
\draw [thick] (v3) edge (v2);
\draw [thick] (v2) edge (v4);
\draw [thick] (v4) edge (v13);
\draw [thick] (v13) edge (v7);

\draw [thick] (v13) edge (v14);
\draw [thick] (v14) edge (v15);
\draw [thick] (v14) edge (v16);
\draw [thick] (v14) edge (v17);
\draw [thick] (v13) edge (v18);
\draw [thick] (v18) edge (v19);
\draw [thick] (v18) edge (v20);
\draw [thick] (v20) edge (v21);
\draw [thick] (v20) edge (v22);

\draw [ultra thick] (v6) edge node [below] {$e_s$} (v13);
  
\draw[decorate,decoration={shape backgrounds, pre length=2mm, post length=2mm,shape=circle,shape size=1.5 mm,shape sep=3mm}] (v6) -- (v13); 



\node [inner sep=1,thick, circle, minimum width=0.2cm,draw, xshift = -0.cm, yshift=0.cm, label=-90:$v_1$] (v23) at (2,-0.4) {};
\draw [thick] (v5) edge (v23);
\draw [thick] (v23) edge (v6);

\node [token, inner sep=0,thick, circle, minimum width=1.5mm,draw, xshift = -0.cm, yshift=0.cm] (v24) at (0.5,0.5) {};


\draw [thick] (v17) edge (v16);
\draw [thick] (v21) edge (v22);
\end{tikzpicture}
